Modelling discrete growth – Connecting theory to data: Introduction to Bayesian statistics for ecologists
…
vb_discrete_post$summary()

# A tibble: 23 × 10
   variable    mean  median     sd    mad      q5     q95  rhat ess_bulk
   <chr>      <dbl>   <dbl>  <dbl>  <dbl>   <dbl>   <dbl> <dbl>    <dbl>
 1 lp__     -23.2   -22.9   1.49   1.28   -26.1   -21.5   1.00     1852.
 2 Lstart    11.8    11.8   1.65   1.64     9.12   14.5   1.00     3194.
 3 Lmax     119.    118.    2.09   2.03   115.    122.    1.00     3195.
 4 r          0.293   0.292 0.0240 0.0229   0.256   0.333 1.00     3237.
 5 sigma      2.25    2.20  0.379  0.364    1.72    2.93  1.00     2695.
 6 mu[1]     11.8    11.8   1.65   1.64     9.12   14.5   1.00     3194.
 7 mu[2]     59.1    59.1   2.43   2.37    55.2    63.0   1.000    4201.
 8 mu[3]     85.3    85.4   2.63   2.61    80.9    89.6   1.000    4239.
 9 mu[4]     99.9   100.    2.25   2.23    96.1   103.    1.000    4561.
10 mu[5]    108.    108.    1.88   1.81   105.    111.    1.000    4799.
# ℹ 13 more rows
# ℹ 1 more variable: ess_tail <dbl>
…
